The Basics of sfdep
…
These lists can be created line by line or within a pipe. The most
common usecase is likely via a dplyr pipeline.

guerry_nb <- guerry %>% 
  mutate(nb = st_contiguity(geometry),
         wt = st_weights(nb),
         .before = 1) # to put them in the front

guerry_nb
#> Simple feature collection with 85 features and 28 fields
#> Geometry type: MULTIPOLYGON
#> Dimension:     XY
#> Bounding box:  xmin: 47680 ymin: 1703258 xmax: 1031401 ymax: 2677441
#> CRS:           NA
#> # A tibble: 85 × 29
#>    nb        wt     code_dept count ave_i…¹  dept region depar…² crime…³ crime…⁴
#>  * <nb>      <list> <fct>     <dbl>   <dbl> <int> <fct>  <fct>     <int>   <int>
#>  1 <int [4]> <dbl>  01            1      49     1 E      Ain       28870   15890
#>  2 <int [6]> <dbl>  02            1     812     2 N      Aisne     26226    5521
#>  3 <int [6]> <dbl>  03            1    1418     3 C      Allier    26747    7925
#>  4 <int [4]> <dbl>  04            1    1603     4 E      Basses…   12935    7289
#>  5 <int [3]> <dbl>  05            1    1802     5 E      Hautes…   17488    8174
#>  6 <int [7]> <dbl>  07            1    2249     7 S      Ardeche    9474   10263
#>  7 <int [3]> <dbl>  08            1   35395     8 N      Ardenn…   35203    8847
#>  8 <int [3]> <dbl>  09            1    2526     9 S      Ariege     6173    9597
#>  9 <int [5]> <dbl>  10            1   34410    10 E      Aube      19602    4086
#> 10 <int [5]> <dbl>  11            1    2807    11 S      Aude      15647   10431
#> # … with 75 more rows, 19 more variables: literacy <int>, donations <int>,
#> #   infants <int>, suicides <int>, main_city <ord>, wealth <int>,
#> #   commerce <int>, clergy <int>, crime_parents <int>, infanticide <int>,
#> #   donation_clergy <int>, lottery <int>, desertion <int>, instruction <int>,
#> #   prostitutes <int>, distance <dbl>, area <int>, pop1831 <dbl>,
#> #   geometry <MULTIPOLYGON>, and abbreviated variable names ¹​ave_id_geo,
#> #   ²​department, ³​crime_pers, ⁴​crime_prop
#> # ℹ Use `print(n = ...)` to see more rows, and `colnames()` to see all variable names
…
For example to calculate the Local Moran we use the function
local_moran()

lisa <- guerry_nb %>% 
  mutate(local_moran = local_moran(crime_pers, nb, wt, nsim = 199),
         .before = 1)

lisa
#> Simple feature collection with 85 features and 29 fields
#> Geometry type: MULTIPOLYGON
#> Dimension:     XY
#> Bounding box:  xmin: 47680 ymin: 1703258 xmax: 1031401 ymax: 2677441
#> CRS:           NA
#> # A tibble: 85 × 30
#>    local_moran$ii nb    wt    code_…¹ count ave_i…²  dept region depar…³ crime…⁴
#>  *          <dbl> <nb>  <lis> <fct>   <dbl>   <dbl> <int> <fct>  <fct>     <int>
#>  1         0.522  <int> <dbl> 01          1      49     1 E      Ain       28870
#>  2         0.828  <int> <dbl> 02          1     812     2 N      Aisne     26226
#>  3         0.804  <int> <dbl> 03          1    1418     3 C      Allier    26747
#>  4         0.742  <int> <dbl> 04          1    1603     4 E      Basses…   12935
#>  5         0.231  <int> <dbl> 05          1    1802     5 E      Hautes…   17488
#>  6         0.839  <int> <dbl> 07          1    2249     7 S      Ardeche    9474
#>  7         0.623  <int> <dbl> 08          1   35395     8 N      Ardenn…   35203
#>  8         1.65   <int> <dbl> 09          1    2526     9 S      Ariege     6173
#>  9        -0.0198 <int> <dbl> 10          1   34410    10 E      Aube      19602
#> 10         0.695  <int> <dbl> 11          1    2807    11 S      Aude      15647
#> # … with 75 more rows, 31 more variables: local_moran$eii <dbl>, $var_ii <dbl>,
#> #   $z_ii <dbl>, $p_ii <dbl>, $p_ii_sim <dbl>, $p_folded_sim <dbl>,
#> #   $skewness <dbl>, $kurtosis <dbl>, $mean <fct>, $median <fct>, $pysal <fct>,
#> #   crime_prop <int>, literacy <int>, donations <int>, infants <int>,
#> #   suicides <int>, main_city <ord>, wealth <int>, commerce <int>,
#> #   clergy <int>, crime_parents <int>, infanticide <int>,
#> #   donation_clergy <int>, lottery <int>, desertion <int>, instruction <int>, …
#> # ℹ Use `print(n = ...)` to see more rows, and `colnames()` to see all variable names

Now that we have a data frame, we need to unnest it.

lisa %>% 
  tidyr::unnest(local_moran)
#> Simple feature collection with 85 features and 40 fields
#> Geometry type: MULTIPOLYGON
#> Dimension:     XY
#> Bounding box:  xmin: 47680 ymin: 1703258 xmax: 1031401 ymax: 2677441
#> CRS:           NA
#> # A tibble: 85 × 41
#>         ii      eii  var_ii   z_ii    p_ii p_ii_…¹ p_fol…² skewn…³ kurto…⁴ mean 
#>      <dbl>    <dbl>   <dbl>  <dbl>   <dbl>   <dbl>   <dbl>   <dbl>   <dbl> <fct>
#>  1  0.522   0.0109  4.06e-1  0.803 0.422      0.46   0.23   0.0964 -0.531  High…
#>  2  0.828  -0.0195  1.00e-1  2.67  0.00749    0.02   0.01   0.299  -0.0780 High…
#>  3  0.804  -0.0238  1.50e-1  2.13  0.0328     0.07   0.035  0.0821 -0.0240 High…
#>  4  0.742  -0.0180  2.73e-1  1.45  0.146      0.2    0.1    0.148  -0.455  Low-…
#>  5  0.231   0.00844 4.31e-2  1.07  0.283      0.29   0.145  0.0215 -0.262  Low-…
#>  6  0.839  -0.0398  2.87e-1  1.64  0.101      0.1    0.05  -0.206  -0.123  Low-…
#>  7  0.623   0.0919  1.40e+0  0.449 0.654      0.66   0.33   0.0747 -0.555  High…
#>  8  1.65   -0.0428  1.35e+0  1.46  0.145      0.14   0.07  -0.254   0.106  Low-…
#>  9 -0.0198 -0.00138 4.33e-4 -0.883 0.377      0.41   0.205  0.129  -0.188  Low-…
#> 10  0.695   0.0160  6.54e-2  2.66  0.00792    0.02   0.01  -0.102   0.417  Low-…
#> # … with 75 more rows, 31 more variables: median <fct>, pysal <fct>, nb <nb>,
#> #   wt <list>, code_dept <fct>, count <dbl>, ave_id_geo <dbl>, dept <int>,
#> #   region <fct>, department <fct>, crime_pers <int>, crime_prop <int>,
#> #   literacy <int>, donations <int>, infants <int>, suicides <int>,
#> #   main_city <ord>, wealth <int>, commerce <int>, clergy <int>,
#> #   crime_parents <int>, infanticide <int>, donation_clergy <int>,
#> #   lottery <int>, desertion <int>, instruction <int>, prostitutes <int>, …
#> # ℹ Use `print(n = ...)` to see more rows, and `colnames()` to see all variable names
…
Additionally, for other LISAs that can take any number of inputs,
e.g. 3 or more numeric variables, we provide this as a list. Take for
example the Local C statistic.

guerry_nb %>% 
  mutate(local_c = local_c_perm(list(crime_pers, wealth), nb, wt), 
         .before = 1) %>% 
  tidyr::unnest(local_c)
#> Simple feature collection with 85 features and 38 fields
#> Geometry type: MULTIPOLYGON
#> Dimension:     XY
#> Bounding box:  xmin: 47680 ymin: 1703258 xmax: 1031401 ymax: 2677441
#> CRS:           NA
#> # A tibble: 85 × 39
#>       ci cluster   e_ci var_ci   z_ci   p_ci p_ci_sim p_folded…¹ skewn…² kurto…³
#>    <dbl> <fct>    <dbl>  <dbl>  <dbl>  <dbl>    <dbl>      <dbl>   <dbl>   <dbl>
#>  1 1.53  Positive  2.39  0.709 -1.02  0.308     0.312      0.156   0.231 -0.154 
#>  2 0.500 Positive  1.77  0.375 -2.07  0.0386    0.008      0.004   0.581  0.638 
#>  3 0.642 Positive  1.68  0.262 -2.03  0.0420    0.024      0.012   0.364 -0.0133
#>  4 0.324 Positive  2.24  0.754 -2.21  0.0274    0.004      0.002   0.318 -0.294 
#>  5 0.298 Positive  2.22  0.944 -1.98  0.0482    0.032      0.016   0.172 -0.494 
#>  6 1.60  Positive  3.51  0.825 -2.09  0.0362    0.028      0.014   0.102 -0.0997
#>  7 2.04  Positive  3.34  1.73  -0.983 0.326     0.34       0.17    0.293 -0.248 
#>  8 2.20  Positive  3.44  1.81  -0.916 0.360     0.368      0.184   0.301 -0.174 
#>  9 0.507 Positive  1.68  0.392 -1.87  0.0612    0.044      0.022   0.291  0.0453
#> 10 1.46  Positive  1.75  0.352 -0.485 0.627     0.66       0.33    0.561  0.593 
#> # … with 75 more rows, 29 more variables: nb <nb>, wt <list>, code_dept <fct>,
#> #   count <dbl>, ave_id_geo <dbl>, dept <int>, region <fct>, department <fct>,
#> #   crime_pers <int>, crime_prop <int>, literacy <int>, donations <int>,
#> #   infants <int>, suicides <int>, main_city <ord>, wealth <int>,
#> #   commerce <int>, clergy <int>, crime_parents <int>, infanticide <int>,
#> #   donation_clergy <int>, lottery <int>, desertion <int>, instruction <int>,
#> #   prostitutes <int>, distance <dbl>, area <int>, pop1831 <dbl>, …
#> # ℹ Use `print(n = ...)` to see more rows, and `colnames()` to see all variable names
