spacetime and spacetime cubes
…
# replicate the guerry dataset 10 times
x <- purrr::map_dfr(1:10, ~guerry) |> 
  select(code_dept, crime_pers) |> 
         # create an indicator for time period
  mutate(time_period = sort(rep(1:10, 85)), 
         # add some noise 
         crime_pers = crime_pers * runif(850, max = 2))

x
#> Simple feature collection with 850 features and 3 fields
#> Geometry type: MULTIPOLYGON
#> Dimension:     XY
#> Bounding box:  xmin: 47680 ymin: 1703258 xmax: 1031401 ymax: 2677441
#> CRS:           NA
#> # A tibble: 850 × 4
#>    code_dept crime_pers                                         geometry time_…¹
#>  * <fct>          <dbl>                                   <MULTIPOLYGON>   <int>
#>  1 01            25177. (((801150 2092615, 800669 2093190, 800688 20954…       1
#>  2 02            12641. (((729326 2521619, 729320 2521230, 729280 25185…       1
#>  3 03            24882. (((710830 2137350, 711746 2136617, 712430 21352…       1
#>  4 04            20685. (((882701 1920024, 882408 1920733, 881778 19212…       1
#>  5 05             7838. (((886504 1922890, 885733 1922978, 885479 19232…       1
#>  6 07             4408. (((747008 1925789, 746630 1925762, 745723 19251…       1
#>  7 08            61513. (((818893 2514767, 818614 2514515, 817900 25144…       1
#>  8 09             1608. (((509103 1747787, 508820 1747513, 508154 17470…       1
#>  9 10            32380. (((775400 2345600, 775068 2345397, 773587 23451…       1
#> 10 11             5566. (((626230 1810121, 626269 1810496, 627494 18113…       1
#> # … with 840 more rows, and abbreviated variable name ¹​time_period
#> # ℹ Use `print(n = ...)` to see more rows
…
spt <- spacetime(
  .data = df, 
  .geometry = geo, 
  .loc_col = "code_dept", 
  .time_col = "time_period"
  ) 

spt
#> spacetime ────
#> Context:`data`
#> 85 locations `code_dept`
#> 10 time periods `time_period`
#> ── data context ────────────────────────────────────────────────────────────────
#> # A tibble: 850 × 3
#>    code_dept crime_pers time_period
#>  * <fct>          <dbl>       <int>
#>  1 01            25177.           1
#>  2 02            12641.           1
#>  3 03            24882.           1
#>  4 04            20685.           1
#>  5 05             7838.           1
#>  6 07             4408.           1
#>  7 08            61513.           1
#>  8 09             1608.           1
#>  9 10            32380.           1
#> 10 11             5566.           1
#> # … with 840 more rows
#> # ℹ Use `print(n = ...)` to see more rows
…
Spacetime objects have two contexts: the data and geometry
contexts.

The data context consists of a data frame object. It
can be manipulated just like any other data frame. You switch between
contexts using activate(). To switch to the data context
activate “data.”

activate(spt, "data")
#> spacetime ────
#> Context:`data`
#> 85 locations `code_dept`
#> 10 time periods `time_period`
#> ── data context ────────────────────────────────────────────────────────────────
#> # A tibble: 850 × 3
#>    code_dept crime_pers time_period
#>  * <fct>          <dbl>       <int>
#>  1 01            25177.           1
#>  2 02            12641.           1
#>  3 03            24882.           1
#>  4 04            20685.           1
#>  5 05             7838.           1
#>  6 07             4408.           1
#>  7 08            61513.           1
#>  8 09             1608.           1
#>  9 10            32380.           1
#> 10 11             5566.           1
#> # … with 840 more rows
#> # ℹ Use `print(n = ...)` to see more rows
…
spt |> 
  activate("geometry") 
#> spacetime ────
#> Context:`geometry`
#> 85 locations `code_dept`
#> 10 time periods `time_period`
#> ── geometry context ────────────────────────────────────────────────────────────
#> Simple feature collection with 85 features and 1 field
#> Geometry type: MULTIPOLYGON
#> Dimension:     XY
#> Bounding box:  xmin: 47680 ymin: 1703258 xmax: 1031401 ymax: 2677441
#> CRS:           NA
#> # A tibble: 85 × 2
#>    code_dept                                                            geometry
#>  * <fct>                                                          <MULTIPOLYGON>
#>  1 01        (((801150 2092615, 800669 2093190, 800688 2095430, 800780 2095795,…
#>  2 02        (((729326 2521619, 729320 2521230, 729280 2518544, 728751 2517520,…
#>  3 03        (((710830 2137350, 711746 2136617, 712430 2135212, 712070 2134132,…
#>  4 04        (((882701 1920024, 882408 1920733, 881778 1921200, 881526 1922332,…
#>  5 05        (((886504 1922890, 885733 1922978, 885479 1923276, 883061 1925266,…
#>  6 07        (((747008 1925789, 746630 1925762, 745723 1925138, 744216 1925236,…
#>  7 08        (((818893 2514767, 818614 2514515, 817900 2514467, 817327 2514945,…
#>  8 09        (((509103 1747787, 508820 1747513, 508154 1747093, 505861 1746627,…
#>  9 10        (((775400 2345600, 775068 2345397, 773587 2345177, 772940 2344780,…
#> 10 11        (((626230 1810121, 626269 1810496, 627494 1811321, 627681 1812424,…
#> # … with 75 more rows
#> # ℹ Use `print(n = ...)` to see more rows
…
complete_spacetime_cube(sparse_spt)
#> Error in `complete_spacetime_cube()`:
#> ! Location and time combinations are not unique.
#> ℹ There should only be one observation per time and location combination.

This error is informative. We do not have unique bins in our
spacetime data. We can check this.

dplyr::count(sparse_spt, time_period, code_dept)
#> spacetime ────
#> Context:`data`
#> 85 locations `code_dept`
#> 10 time periods `time_period`
#> ── data context ────────────────────────────────────────────────────────────────
#> # A tibble: 517 × 3
#>    time_period code_dept     n
#>          <int> <fct>     <int>
#>  1           1 01            1
#>  2           1 03            1
#>  3           1 05            1
#>  4           1 07            1
#>  5           1 09            1
#>  6           1 12            1
#>  7           1 16            1
#>  8           1 17            2
#>  9           1 18            1
#> 10           1 21            2
#> # … with 507 more rows
#> # ℹ Use `print(n = ...)` to see more rows

Spacetime cubes are used for emerging hot spot analysis as below.

emerging_hotspot_analysis(spt, "crime_pers", threshold = 0.05)
#> # A tibble: 85 × 4
#>    location    tau p_value classification      
#>    <fct>     <dbl>   <dbl> <chr>               
#>  1 01        0.289  0.283  no pattern detected 
#>  2 02        0.156  0.592  sporadic hotspot    
#>  3 03        0.333  0.210  sporadic hotspot    
#>  4 04       -0.511  0.0491 consecutive coldspot
#>  5 05       -0.511  0.0491 sporadic coldspot   
#>  6 07       -0.244  0.371  sporadic coldspot   
#>  7 08       -0.200  0.474  sporadic hotspot    
#>  8 09        0.511  0.0491 sporadic coldspot   
#>  9 10        0.111  0.721  new hotspot         
#> 10 11        0.200  0.474  sporadic coldspot   
#> # … with 75 more rows
#> # ℹ Use `print(n = ...)` to see more rows
